1608550061: INIT
1608550065: START
1608550066: POST-START
1608550074: LIVENESS
1608550076: END
1608550156: INIT
1608550161: START
1608550162: POST-START
1608550165: READINESS
1608550170: LIVENESS
1608550174: READINESS
1608550180: LIVENESS
1608550184: READINESS
1608550190: LIVENESS
1608550191: END
1608550195: START
1608550196: POST-START
1608550200: LIVENESS
1608550204: READINESS
1608550210: LIVENESS
1608550214: READINESS
1608550220: LIVENESS
1608550224: READINESS
1608550225: END
1608550247: START
1608550248: POST-START
1608550250: LIVENESS
1608550254: READINESS
1608550260: LIVENESS
1608550264: READINESS
1608550270: LIVENESS
1608550274: READINESS
1608550277: END
1608550310: START
1608550310: POST-START
1608550314: READINESS
1608550316: PRE-STOP
1608550320: LIVENESS
1608550324: READINESS
1608550330: LIVENESS
1608550334: READINESS
1608550340: END
1608550543: BEEP
1608550548: BEEP
1608550553: BEEP
1608550558: BEEP
1608550563: BEEP
1608550568: SIG_TERM
1608550568: BEEP
1608550573: BEEP
1608550578: BEEP
1608550583: BEEP
1608550588: BEEP
